{
  "family" : "OSPRay",
  "version" : "0.0",
  "materials" : {
    "glass" : {
      "type": "Glass"
    },
    "thin glass" : {
      "type": "ThinGlass"
    },
    "water" : {
      "type": "Glass",
      "doubles" : {
          "attenuationColor" : [0.22, 0.34, 0.47],
          "etaInside" : [1.33]
      }
    },
    "copper" : {
      "type" : "Metal",
      "doubles" : {
        "eta" : [0.1, 0.8, 1.1],
        "k" : [3.5, 2.5, 2.4],
        "roughness" : [0.2]
      }
    },
    "aluminum" : {
      "type" : "Metal"
    }
  }
}
